Exploring the 2021 Canadian Elections
…
simulated_data

# A tibble: 338 × 2
   Riding Party         
    <int> <chr>         
 1      1 Conservative  
 2      2 Bloc Québécois
 3      3 New Democratic
 4      4 Conservative  
 5      5 Conservative  
 6      6 Green         
 7      7 Conservative  
 8      8 New Democratic
 9      9 New Democratic
10     10 New Democratic
# ℹ 328 more rows
…
# Separate Name and Party
cleaned_elections_data <-
  cleaned_elections_data |>
  separate(
    col = elected_candidate,
    into = c("Other", "party"),
    sep = "/"
  ) |>
  select(-Other)

cleaned_elections_data

# A tibble: 338 × 2
   electoral_district_name                                   party       
   <chr>                                                     <chr>       
 1 Avalon                                                    Libéral     
 2 Bonavista--Burin--Trinity                                 Libéral     
 3 Coast of Bays--Central--Notre Dame                        Conservateur
 4 Labrador                                                  Libéral     
 5 Long Range Mountains                                      Libéral     
 6 St. John's East/St. John's-Est                            Libéral     
 7 St. John's South--Mount Pearl/St. John's-Sud--Mount Pearl Libéral     
 8 Cardigan                                                  Libéral     
 9 Charlottetown                                             Libéral     
10 Egmont                                                    Libéral     
# ℹ 328 more rows
…
